12-memories/single_port/sim/ram_single_port_v1_sim_resutls.txt
Reading pref.tcl

# 10.7c

# vsim -c work.ram_single_port_tb -t 10ps -voptargs="+acc" -debugDB -do "add wave *;run -all;exit" 
# Start time: 09:54:32 on Feb 23,2023
# ** Note: (vsim-8009) Loading existing optimized design _opt
# //  Questa Sim-64
# //  Version 10.7c linux_x86_64 Aug 17 2018
# //
# //  Copyright 1991-2018 Mentor Graphics Corporation
# //  All Rights Reserved.
# //
# //  QuestaSim and its associated documentation contain trade
# //  secrets and commercial or financial information that are the property of
# //  Mentor Graphics Corporation and are privileged, confidential,
# //  and exempt from disclosure under the Freedom of Information Act,
# //  5 U.S.C. Section 552. Furthermore, this information
# //  is prohibited from disclosure under the Trade Secrets Act,
# //  18 U.S.C. Section 1905.
# //
# Loading work.ram_single_port_tb(fast)
# Loading work.ram_single_port_v1(fast)
# ** Note: (vsim-8716) Reusing existing debug database vsim.dbg.
# add wave *
# run -all
# time=                   0 we_in=0	 clk=0	 read_addr=000000	 write_addr=000000	 data_in=00000000	 data_out=xxxxxxxx	
# time=                   5 we_in=0	 clk=1	 read_addr=000000	 write_addr=000000	 data_in=00000000	 data_out=xxxxxxxx	
# time=                  10 we_in=0	 clk=0	 read_addr=000000	 write_addr=000000	 data_in=00000000	 data_out=xxxxxxxx	
# time=                  15 we_in=0	 clk=1	 read_addr=000000	 write_addr=000000	 data_in=00000000	 data_out=xxxxxxxx	
# time=                  20 we_in=0	 clk=0	 read_addr=000000	 write_addr=000000	 data_in=00000000	 data_out=xxxxxxxx	
# time=                  25 we_in=0	 clk=1	 read_addr=000000	 write_addr=000000	 data_in=00000000	 data_out=xxxxxxxx	
# time=                  30 we_in=1	 clk=0	 read_addr=000000	 write_addr=000000	 data_in=00000000	 data_out=xxxxxxxx	
# time=                  35 we_in=1	 clk=1	 read_addr=000000	 write_addr=000000	 data_in=00000000	 data_out=xxxxxxxx	
# time=                  40 we_in=1	 clk=0	 read_addr=000000	 write_addr=000000	 data_in=00000000	 data_out=xxxxxxxx	
# time=                  45 we_in=1	 clk=1	 read_addr=000000	 write_addr=000000	 data_in=00000000	 data_out=00000000	
# time=                  50 we_in=1	 clk=0	 read_addr=000000	 write_addr=000000	 data_in=00000000	 data_out=00000000	
# time=                  55 we_in=1	 clk=1	 read_addr=000000	 write_addr=000000	 data_in=00000000	 data_out=00000000	
# time=                  60 we_in=1	 clk=0	 read_addr=000000	 write_addr=000000	 data_in=00000000	 data_out=00000000	
# time=                  65 we_in=1	 clk=1	 read_addr=000000	 write_addr=000000	 data_in=00000000	 data_out=00000000	
# time=                  70 we_in=1	 clk=0	 read_addr=000000	 write_addr=000000	 data_in=00000000	 data_out=00000000	
# time=                  75 we_in=1	 clk=1	 read_addr=000000	 write_addr=000000	 data_in=00000000	 data_out=00000000	
# time=                  80 we_in=1	 clk=0	 read_addr=000000	 write_addr=000000	 data_in=00000000	 data_out=00000000	
# time=                  85 we_in=1	 clk=1	 read_addr=000000	 write_addr=000000	 data_in=00000000	 data_out=00000000	
# time=                  90 we_in=1	 clk=0	 read_addr=000000	 write_addr=000000	 data_in=00000000	 data_out=00000000	
# time=                  95 we_in=1	 clk=1	 read_addr=000000	 write_addr=000000	 data_in=00000000	 data_out=00000000	
# time=                 100 we_in=1	 clk=0	 read_addr=000000	 write_addr=000001	 data_in=00000001	 data_out=00000000	
# time=                 105 we_in=1	 clk=1	 read_addr=000000	 write_addr=000001	 data_in=00000001	 data_out=00000000	
# time=                 110 we_in=1	 clk=0	 read_addr=000000	 write_addr=000001	 data_in=00000001	 data_out=00000000	
# time=                 115 we_in=1	 clk=1	 read_addr=000000	 write_addr=000001	 data_in=00000001	 data_out=00000000	
# time=                 120 we_in=1	 clk=0	 read_addr=000000	 write_addr=000001	 data_in=00000001	 data_out=00000000	
# time=                 125 we_in=1	 clk=1	 read_addr=000000	 write_addr=000001	 data_in=00000001	 data_out=00000000	
# time=                 130 we_in=1	 clk=0	 read_addr=000000	 write_addr=000001	 data_in=00000001	 data_out=00000000	
# time=                 135 we_in=1	 clk=1	 read_addr=000000	 write_addr=000001	 data_in=00000001	 data_out=00000000	
# time=                 140 we_in=1	 clk=0	 read_addr=000000	 write_addr=000010	 data_in=00000010	 data_out=00000000	
# time=                 145 we_in=1	 clk=1	 read_addr=000000	 write_addr=000010	 data_in=00000010	 data_out=00000000	
# time=                 150 we_in=1	 clk=0	 read_addr=000000	 write_addr=000010	 data_in=00000010	 data_out=00000000	
# time=                 155 we_in=1	 clk=1	 read_addr=000000	 write_addr=000010	 data_in=00000010	 data_out=00000000	
# time=                 160 we_in=1	 clk=0	 read_addr=000000	 write_addr=000010	 data_in=00000010	 data_out=00000000	
# time=                 165 we_in=1	 clk=1	 read_addr=000000	 write_addr=000010	 data_in=00000010	 data_out=00000000	
# time=                 170 we_in=1	 clk=0	 read_addr=000000	 write_addr=000010	 data_in=00000010	 data_out=00000000	
# time=                 175 we_in=1	 clk=1	 read_addr=000000	 write_addr=000010	 data_in=00000010	 data_out=00000000	
# time=                 180 we_in=1	 clk=0	 read_addr=000000	 write_addr=000011	 data_in=00000011	 data_out=00000000	
# time=                 185 we_in=1	 clk=1	 read_addr=000000	 write_addr=000011	 data_in=00000011	 data_out=00000000	
# time=                 190 we_in=1	 clk=0	 read_addr=000000	 write_addr=000011	 data_in=00000011	 data_out=00000000	
# time=                 195 we_in=1	 clk=1	 read_addr=000000	 write_addr=000011	 data_in=00000011	 data_out=00000000	
# time=                 200 we_in=1	 clk=0	 read_addr=000000	 write_addr=000011	 data_in=00000011	 data_out=00000000	
# time=                 205 we_in=1	 clk=1	 read_addr=000000	 write_addr=000011	 data_in=00000011	 data_out=00000000	
# time=                 210 we_in=1	 clk=0	 read_addr=000000	 write_addr=000011	 data_in=00000011	 data_out=00000000	
# time=                 215 we_in=1	 clk=1	 read_addr=000000	 write_addr=000011	 data_in=00000011	 data_out=00000000	
# time=                 220 we_in=1	 clk=0	 read_addr=000000	 write_addr=000100	 data_in=00000100	 data_out=00000000	
# time=                 225 we_in=1	 clk=1	 read_addr=000000	 write_addr=000100	 data_in=00000100	 data_out=00000000	
# time=                 230 we_in=1	 clk=0	 read_addr=000000	 write_addr=000100	 data_in=00000100	 data_out=00000000	
# time=                 235 we_in=1	 clk=1	 read_addr=000000	 write_addr=000100	 data_in=00000100	 data_out=00000000	
# time=                 240 we_in=1	 clk=0	 read_addr=000000	 write_addr=000100	 data_in=00000100	 data_out=00000000	
# time=                 245 we_in=1	 clk=1	 read_addr=000000	 write_addr=000100	 data_in=00000100	 data_out=00000000	
# time=                 250 we_in=1	 clk=0	 read_addr=000000	 write_addr=000100	 data_in=00000100	 data_out=00000000	
# time=                 255 we_in=1	 clk=1	 read_addr=000000	 write_addr=000100	 data_in=00000100	 data_out=00000000	
# time=                 260 we_in=1	 clk=0	 read_addr=000000	 write_addr=000101	 data_in=00000101	 data_out=00000000	
# time=                 265 we_in=1	 clk=1	 read_addr=000000	 write_addr=000101	 data_in=00000101	 data_out=00000000	
# time=                 270 we_in=1	 clk=0	 read_addr=000000	 write_addr=000101	 data_in=00000101	 data_out=00000000	
# time=                 275 we_in=1	 clk=1	 read_addr=000000	 write_addr=000101	 data_in=00000101	 data_out=00000000	
# time=                 280 we_in=1	 clk=0	 read_addr=000000	 write_addr=000101	 data_in=00000101	 data_out=00000000	
# time=                 285 we_in=1	 clk=1	 read_addr=000000	 write_addr=000101	 data_in=00000101	 data_out=00000000	
# time=                 290 we_in=1	 clk=0	 read_addr=000000	 write_addr=000101	 data_in=00000101	 data_out=00000000	
# time=                 295 we_in=1	 clk=1	 read_addr=000000	 write_addr=000101	 data_in=00000101	 data_out=00000000	
# time=                 300 we_in=1	 clk=0	 read_addr=000000	 write_addr=000110	 data_in=00000110	 data_out=00000000	
# time=                 305 we_in=1	 clk=1	 read_addr=000000	 write_addr=000110	 data_in=00000110	 data_out=00000000	
# time=                 310 we_in=1	 clk=0	 read_addr=000000	 write_addr=000110	 data_in=00000110	 data_out=00000000	
# time=                 315 we_in=1	 clk=1	 read_addr=000000	 write_addr=000110	 data_in=00000110	 data_out=00000000	
# time=                 320 we_in=1	 clk=0	 read_addr=000000	 write_addr=000110	 data_in=00000110	 data_out=00000000	
# time=                 325 we_in=1	 clk=1	 read_addr=000000	 write_addr=000110	 data_in=00000110	 data_out=00000000	
# time=                 330 we_in=1	 clk=0	 read_addr=000000	 write_addr=000110	 data_in=00000110	 data_out=00000000	
# time=                 335 we_in=1	 clk=1	 read_addr=000000	 write_addr=000110	 data_in=00000110	 data_out=00000000	
# time=                 340 we_in=1	 clk=0	 read_addr=000000	 write_addr=000111	 data_in=00000111	 data_out=00000000	
# time=                 345 we_in=1	 clk=1	 read_addr=000000	 write_addr=000111	 data_in=00000111	 data_out=00000000	
# time=                 350 we_in=1	 clk=0	 read_addr=000000	 write_addr=000111	 data_in=00000111	 data_out=00000000	
# time=                 355 we_in=1	 clk=1	 read_addr=000000	 write_addr=000111	 data_in=00000111	 data_out=00000000	
# time=                 360 we_in=1	 clk=0	 read_addr=000000	 write_addr=000111	 data_in=00000111	 data_out=00000000	
# time=                 365 we_in=1	 clk=1	 read_addr=000000	 write_addr=000111	 data_in=00000111	 data_out=00000000	
# time=                 370 we_in=1	 clk=0	 read_addr=000000	 write_addr=000111	 data_in=00000111	 data_out=00000000	
# time=                 375 we_in=1	 clk=1	 read_addr=000000	 write_addr=000111	 data_in=00000111	 data_out=00000000	
# time=                 380 we_in=1	 clk=0	 read_addr=000000	 write_addr=001000	 data_in=00001000	 data_out=00000000	
# time=                 385 we_in=1	 clk=1	 read_addr=000000	 write_addr=001000	 data_in=00001000	 data_out=00000000	
# time=                 390 we_in=1	 clk=0	 read_addr=000000	 write_addr=001000	 data_in=00001000	 data_out=00000000	
# time=                 395 we_in=1	 clk=1	 read_addr=000000	 write_addr=001000	 data_in=00001000	 data_out=00000000	
# time=                 400 we_in=1	 clk=0	 read_addr=000000	 write_addr=001000	 data_in=00001000	 data_out=00000000	
# time=                 405 we_in=1	 clk=1	 read_addr=000000	 write_addr=001000	 data_in=00001000	 data_out=00000000	
# time=                 410 we_in=1	 clk=0	 read_addr=000000	 write_addr=001000	 data_in=00001000	 data_out=00000000	
# time=                 415 we_in=1	 clk=1	 read_addr=000000	 write_addr=001000	 data_in=00001000	 data_out=00000000	
# time=                 420 we_in=1	 clk=0	 read_addr=000000	 write_addr=001001	 data_in=00001001	 data_out=00000000	
# time=                 425 we_in=1	 clk=1	 read_addr=000000	 write_addr=001001	 data_in=00001001	 data_out=00000000	
# time=                 430 we_in=1	 clk=0	 read_addr=000000	 write_addr=001001	 data_in=00001001	 data_out=00000000	
# time=                 435 we_in=1	 clk=1	 read_addr=000000	 write_addr=001001	 data_in=00001001	 data_out=00000000	
# time=                 440 we_in=1	 clk=0	 read_addr=000000	 write_addr=001001	 data_in=00001001	 data_out=00000000	
# time=                 445 we_in=1	 clk=1	 read_addr=000000	 write_addr=001001	 data_in=00001001	 data_out=00000000	
# time=                 450 we_in=1	 clk=0	 read_addr=000000	 write_addr=001001	 data_in=00001001	 data_out=00000000	
# time=                 455 we_in=1	 clk=1	 read_addr=000000	 write_addr=001001	 data_in=00001001	 data_out=00000000	
# time=                 460 we_in=1	 clk=0	 read_addr=000000	 write_addr=001010	 data_in=00001010	 data_out=00000000	
# time=                 465 we_in=1	 clk=1	 read_addr=000000	 write_addr=001010	 data_in=00001010	 data_out=00000000	
# time=                 470 we_in=1	 clk=0	 read_addr=000000	 write_addr=001010	 data_in=00001010	 data_out=00000000	
# time=                 475 we_in=1	 clk=1	 read_addr=000000	 write_addr=001010	 data_in=00001010	 data_out=00000000	
# time=                 480 we_in=1	 clk=0	 read_addr=000000	 write_addr=001010	 data_in=00001010	 data_out=00000000	
# time=                 485 we_in=1	 clk=1	 read_addr=000000	 write_addr=001010	 data_in=00001010	 data_out=00000000	
# time=                 490 we_in=1	 clk=0	 read_addr=000000	 write_addr=001010	 data_in=00001010	 data_out=00000000	
# time=                 495 we_in=1	 clk=1	 read_addr=000000	 write_addr=001010	 data_in=00001010	 data_out=00000000	
# time=                 500 we_in=1	 clk=0	 read_addr=000000	 write_addr=001011	 data_in=00001011	 data_out=00000000	
# time=                 505 we_in=1	 clk=1	 read_addr=000000	 write_addr=001011	 data_in=00001011	 data_out=00000000	
# time=                 510 we_in=1	 clk=0	 read_addr=000000	 write_addr=001011	 data_in=00001011	 data_out=00000000	
# time=                 515 we_in=1	 clk=1	 read_addr=000000	 write_addr=001011	 data_in=00001011	 data_out=00000000	
# time=                 520 we_in=1	 clk=0	 read_addr=000000	 write_addr=001011	 data_in=00001011	 data_out=00000000	
# time=                 525 we_in=1	 clk=1	 read_addr=000000	 write_addr=001011	 data_in=00001011	 data_out=00000000	
# time=                 530 we_in=1	 clk=0	 read_addr=000000	 write_addr=001011	 data_in=00001011	 data_out=00000000	
# time=                 535 we_in=1	 clk=1	 read_addr=000000	 write_addr=001011	 data_in=00001011	 data_out=00000000	
# time=                 540 we_in=1	 clk=0	 read_addr=000000	 write_addr=001100	 data_in=00001100	 data_out=00000000	
# time=                 545 we_in=1	 clk=1	 read_addr=000000	 write_addr=001100	 data_in=00001100	 data_out=00000000	
# time=                 550 we_in=1	 clk=0	 read_addr=000000	 write_addr=001100	 data_in=00001100	 data_out=00000000	
# time=                 555 we_in=1	 clk=1	 read_addr=000000	 write_addr=001100	 data_in=00001100	 data_out=00000000	
# time=                 560 we_in=1	 clk=0	 read_addr=000000	 write_addr=001100	 data_in=00001100	 data_out=00000000	
# time=                 565 we_in=1	 clk=1	 read_addr=000000	 write_addr=001100	 data_in=00001100	 data_out=00000000	
# time=                 570 we_in=1	 clk=0	 read_addr=000000	 write_addr=001100	 data_in=00001100	 data_out=00000000	
# time=                 575 we_in=1	 clk=1	 read_addr=000000	 write_addr=001100	 data_in=00001100	 data_out=00000000	
# time=                 580 we_in=1	 clk=0	 read_addr=000000	 write_addr=001101	 data_in=00001101	 data_out=00000000	
# time=                 585 we_in=1	 clk=1	 read_addr=000000	 write_addr=001101	 data_in=00001101	 data_out=00000000	
# time=                 590 we_in=1	 clk=0	 read_addr=000000	 write_addr=001101	 data_in=00001101	 data_out=00000000	
# time=                 595 we_in=1	 clk=1	 read_addr=000000	 write_addr=001101	 data_in=00001101	 data_out=00000000	
# time=                 600 we_in=1	 clk=0	 read_addr=000000	 write_addr=001101	 data_in=00001101	 data_out=00000000	
# time=                 605 we_in=1	 clk=1	 read_addr=000000	 write_addr=001101	 data_in=00001101	 data_out=00000000	
# time=                 610 we_in=1	 clk=0	 read_addr=000000	 write_addr=001101	 data_in=00001101	 data_out=00000000	
# time=                 615 we_in=1	 clk=1	 read_addr=000000	 write_addr=001101	 data_in=00001101	 data_out=00000000	
# time=                 620 we_in=1	 clk=0	 read_addr=000000	 write_addr=001110	 data_in=00001110	 data_out=00000000	
# time=                 625 we_in=1	 clk=1	 read_addr=000000	 write_addr=001110	 data_in=00001110	 data_out=00000000	
# time=                 630 we_in=1	 clk=0	 read_addr=000000	 write_addr=001110	 data_in=00001110	 data_out=00000000	
# time=                 635 we_in=1	 clk=1	 read_addr=000000	 write_addr=001110	 data_in=00001110	 data_out=00000000	
# time=                 640 we_in=1	 clk=0	 read_addr=000000	 write_addr=001110	 data_in=00001110	 data_out=00000000	
# time=                 645 we_in=1	 clk=1	 read_addr=000000	 write_addr=001110	 data_in=00001110	 data_out=00000000	
# time=                 650 we_in=1	 clk=0	 read_addr=000000	 write_addr=001110	 data_in=00001110	 data_out=00000000	
# time=                 655 we_in=1	 clk=1	 read_addr=000000	 write_addr=001110	 data_in=00001110	 data_out=00000000	
# time=                 660 we_in=1	 clk=0	 read_addr=000000	 write_addr=001111	 data_in=00001111	 data_out=00000000	
# time=                 665 we_in=1	 clk=1	 read_addr=000000	 write_addr=001111	 data_in=00001111	 data_out=00000000	
# time=                 670 we_in=1	 clk=0	 read_addr=000000	 write_addr=001111	 data_in=00001111	 data_out=00000000	
# time=                 675 we_in=1	 clk=1	 read_addr=000000	 write_addr=001111	 data_in=00001111	 data_out=00000000	
# time=                 680 we_in=1	 clk=0	 read_addr=000000	 write_addr=001111	 data_in=00001111	 data_out=00000000	
# time=                 685 we_in=1	 clk=1	 read_addr=000000	 write_addr=001111	 data_in=00001111	 data_out=00000000	
# time=                 690 we_in=1	 clk=0	 read_addr=000000	 write_addr=001111	 data_in=00001111	 data_out=00000000	
# time=                 695 we_in=1	 clk=1	 read_addr=000000	 write_addr=001111	 data_in=00001111	 data_out=00000000	
# time=                 700 we_in=1	 clk=0	 read_addr=000000	 write_addr=010000	 data_in=00010000	 data_out=00000000	
# time=                 705 we_in=1	 clk=1	 read_addr=000000	 write_addr=010000	 data_in=00010000	 data_out=00000000	
# time=                 710 we_in=1	 clk=0	 read_addr=000000	 write_addr=010000	 data_in=00010000	 data_out=00000000	
# time=                 715 we_in=1	 clk=1	 read_addr=000000	 write_addr=010000	 data_in=00010000	 data_out=00000000	
# time=                 720 we_in=1	 clk=0	 read_addr=000000	 write_addr=010000	 data_in=00010000	 data_out=00000000	
# time=                 725 we_in=1	 clk=1	 read_addr=000000	 write_addr=010000	 data_in=00010000	 data_out=00000000	
# time=                 730 we_in=1	 clk=0	 read_addr=000000	 write_addr=010000	 data_in=00010000	 data_out=00000000	
# time=                 735 we_in=1	 clk=1	 read_addr=000000	 write_addr=010000	 data_in=00010000	 data_out=00000000	
# time=                 740 we_in=1	 clk=0	 read_addr=000000	 write_addr=010001	 data_in=00010001	 data_out=00000000	
# time=                 745 we_in=1	 clk=1	 read_addr=000000	 write_addr=010001	 data_in=00010001	 data_out=00000000	
# time=                 750 we_in=1	 clk=0	 read_addr=000000	 write_addr=010001	 data_in=00010001	 data_out=00000000	
# time=                 755 we_in=1	 clk=1	 read_addr=000000	 write_addr=010001	 data_in=00010001	 data_out=00000000	
# time=                 760 we_in=1	 clk=0	 read_addr=000000	 write_addr=010001	 data_in=00010001	 data_out=00000000	
# time=                 765 we_in=1	 clk=1	 read_addr=000000	 write_addr=010001	 data_in=00010001	 data_out=00000000	
# time=                 770 we_in=1	 clk=0	 read_addr=000000	 write_addr=010001	 data_in=00010001	 data_out=00000000	
# time=                 775 we_in=1	 clk=1	 read_addr=000000	 write_addr=010001	 data_in=00010001	 data_out=00000000	
# time=                 780 we_in=1	 clk=0	 read_addr=000000	 write_addr=010010	 data_in=00010010	 data_out=00000000	
# time=                 785 we_in=1	 clk=1	 read_addr=000000	 write_addr=010010	 data_in=00010010	 data_out=00000000	
# time=                 790 we_in=1	 clk=0	 read_addr=000000	 write_addr=010010	 data_in=00010010	 data_out=00000000	
# time=                 795 we_in=1	 clk=1	 read_addr=000000	 write_addr=010010	 data_in=00010010	 data_out=00000000	
# time=                 800 we_in=1	 clk=0	 read_addr=000000	 write_addr=010010	 data_in=00010010	 data_out=00000000	
# time=                 805 we_in=1	 clk=1	 read_addr=000000	 write_addr=010010	 data_in=00010010	 data_out=00000000	
# time=                 810 we_in=1	 clk=0	 read_addr=000000	 write_addr=010010	 data_in=00010010	 data_out=00000000	
# time=                 815 we_in=1	 clk=1	 read_addr=000000	 write_addr=010010	 data_in=00010010	 data_out=00000000	
# time=                 820 we_in=1	 clk=0	 read_addr=000000	 write_addr=010011	 data_in=00010011	 data_out=00000000	
# time=                 825 we_in=1	 clk=1	 read_addr=000000	 write_addr=010011	 data_in=00010011	 data_out=00000000	
# time=                 830 we_in=1	 clk=0	 read_addr=000000	 write_addr=010011	 data_in=00010011	 data_out=00000000	
# time=                 835 we_in=1	 clk=1	 read_addr=000000	 write_addr=010011	 data_in=00010011	 data_out=00000000	
# time=                 840 we_in=1	 clk=0	 read_addr=000000	 write_addr=010011	 data_in=00010011	 data_out=00000000	
# time=                 845 we_in=1	 clk=1	 read_addr=000000	 write_addr=010011	 data_in=00010011	 data_out=00000000	
# time=                 850 we_in=1	 clk=0	 read_addr=000000	 write_addr=010011	 data_in=00010011	 data_out=00000000	
# time=                 855 we_in=1	 clk=1	 read_addr=000000	 write_addr=010011	 data_in=00010011	 data_out=00000000	
# time=                 860 we_in=1	 clk=0	 read_addr=000000	 write_addr=010100	 data_in=00010100	 data_out=00000000	
# time=                 865 we_in=1	 clk=1	 read_addr=000000	 write_addr=010100	 data_in=00010100	 data_out=00000000	
# time=                 870 we_in=1	 clk=0	 read_addr=000000	 write_addr=010100	 data_in=00010100	 data_out=00000000	
# time=                 875 we_in=1	 clk=1	 read_addr=000000	 write_addr=010100	 data_in=00010100	 data_out=00000000	
# time=                 880 we_in=1	 clk=0	 read_addr=000000	 write_addr=010100	 data_in=00010100	 data_out=00000000	
# time=                 885 we_in=1	 clk=1	 read_addr=000000	 write_addr=010100	 data_in=00010100	 data_out=00000000	
# time=                 890 we_in=1	 clk=0	 read_addr=000000	 write_addr=010100	 data_in=00010100	 data_out=00000000	
# time=                 895 we_in=1	 clk=1	 read_addr=000000	 write_addr=010100	 data_in=00010100	 data_out=00000000	
# time=                 900 we_in=1	 clk=0	 read_addr=000000	 write_addr=010101	 data_in=00010101	 data_out=00000000	
# time=                 905 we_in=1	 clk=1	 read_addr=000000	 write_addr=010101	 data_in=00010101	 data_out=00000000	
# time=                 910 we_in=1	 clk=0	 read_addr=000000	 write_addr=010101	 data_in=00010101	 data_out=00000000	
# time=                 915 we_in=1	 clk=1	 read_addr=000000	 write_addr=010101	 data_in=00010101	 data_out=00000000	
# time=                 920 we_in=1	 clk=0	 read_addr=000000	 write_addr=010101	 data_in=00010101	 data_out=00000000	
# time=                 925 we_in=1	 clk=1	 read_addr=000000	 write_addr=010101	 data_in=00010101	 data_out=00000000	
# time=                 930 we_in=1	 clk=0	 read_addr=000000	 write_addr=010101	 data_in=00010101	 data_out=00000000	
# time=                 935 we_in=1	 clk=1	 read_addr=000000	 write_addr=010101	 data_in=00010101	 data_out=00000000	
# time=                 940 we_in=1	 clk=0	 read_addr=000000	 write_addr=010110	 data_in=00010110	 data_out=00000000	
# time=                 945 we_in=1	 clk=1	 read_addr=000000	 write_addr=010110	 data_in=00010110	 data_out=00000000	
# time=                 950 we_in=1	 clk=0	 read_addr=000000	 write_addr=010110	 data_in=00010110	 data_out=00000000	
# time=                 955 we_in=1	 clk=1	 read_addr=000000	 write_addr=010110	 data_in=00010110	 data_out=00000000	
# time=                 960 we_in=1	 clk=0	 read_addr=000000	 write_addr=010110	 data_in=00010110	 data_out=00000000	
# time=                 965 we_in=1	 clk=1	 read_addr=000000	 write_addr=010110	 data_in=00010110	 data_out=00000000	
# time=                 970 we_in=1	 clk=0	 read_addr=000000	 write_addr=010110	 data_in=00010110	 data_out=00000000	
# time=                 975 we_in=1	 clk=1	 read_addr=000000	 write_addr=010110	 data_in=00010110	 data_out=00000000	
# time=                 980 we_in=1	 clk=0	 read_addr=000000	 write_addr=010111	 data_in=00010111	 data_out=00000000	
# time=                 985 we_in=1	 clk=1	 read_addr=000000	 write_addr=010111	 data_in=00010111	 data_out=00000000	
# time=                 990 we_in=1	 clk=0	 read_addr=000000	 write_addr=010111	 data_in=00010111	 data_out=00000000	
# time=                 995 we_in=1	 clk=1	 read_addr=000000	 write_addr=010111	 data_in=00010111	 data_out=00000000	
# time=                1000 we_in=1	 clk=0	 read_addr=000000	 write_addr=010111	 data_in=00010111	 data_out=00000000	
# time=                1005 we_in=1	 clk=1	 read_addr=000000	 write_addr=010111	 data_in=00010111	 data_out=00000000	
# time=                1010 we_in=1	 clk=0	 read_addr=000000	 write_addr=010111	 data_in=00010111	 data_out=00000000	
# time=                1015 we_in=1	 clk=1	 read_addr=000000	 write_addr=010111	 data_in=00010111	 data_out=00000000	
# time=                1020 we_in=1	 clk=0	 read_addr=000000	 write_addr=011000	 data_in=00011000	 data_out=00000000	
# time=                1025 we_in=1	 clk=1	 read_addr=000000	 write_addr=011000	 data_in=00011000	 data_out=00000000	
# time=                1030 we_in=1	 clk=0	 read_addr=000000	 write_addr=011000	 data_in=00011000	 data_out=00000000	
# time=                1035 we_in=1	 clk=1	 read_addr=000000	 write_addr=011000	 data_in=00011000	 data_out=00000000	
# time=                1040 we_in=1	 clk=0	 read_addr=000000	 write_addr=011000	 data_in=00011000	 data_out=00000000	
# time=                1045 we_in=1	 clk=1	 read_addr=000000	 write_addr=011000	 data_in=00011000	 data_out=00000000	
# time=                1050 we_in=1	 clk=0	 read_addr=000000	 write_addr=011000	 data_in=00011000	 data_out=00000000	
# time=                1055 we_in=1	 clk=1	 read_addr=000000	 write_addr=011000	 data_in=00011000	 data_out=00000000	
# time=                1060 we_in=1	 clk=0	 read_addr=000000	 write_addr=011001	 data_in=00011001	 data_out=00000000	
# time=                1065 we_in=1	 clk=1	 read_addr=000000	 write_addr=011001	 data_in=00011001	 data_out=00000000	
# time=                1070 we_in=1	 clk=0	 read_addr=000000	 write_addr=011001	 data_in=00011001	 data_out=00000000	
# time=                1075 we_in=1	 clk=1	 read_addr=000000	 write_addr=011001	 data_in=00011001	 data_out=00000000	
# time=                1080 we_in=1	 clk=0	 read_addr=000000	 write_addr=011001	 data_in=00011001	 data_out=00000000	
# time=                1085 we_in=1	 clk=1	 read_addr=000000	 write_addr=011001	 data_in=00011001	 data_out=00000000	
# time=                1090 we_in=1	 clk=0	 read_addr=000000	 write_addr=011001	 data_in=00011001	 data_out=00000000	
# time=                1095 we_in=1	 clk=1	 read_addr=000000	 write_addr=011001	 data_in=00011001	 data_out=00000000	
# time=                1100 we_in=1	 clk=0	 read_addr=000000	 write_addr=011010	 data_in=00011010	 data_out=00000000	
# time=                1105 we_in=1	 clk=1	 read_addr=000000	 write_addr=011010	 data_in=00011010	 data_out=00000000	
# time=                1110 we_in=1	 clk=0	 read_addr=000000	 write_addr=011010	 data_in=00011010	 data_out=00000000	
# time=                1115 we_in=1	 clk=1	 read_addr=000000	 write_addr=011010	 data_in=00011010	 data_out=00000000	
# time=                1120 we_in=1	 clk=0	 read_addr=000000	 write_addr=011010	 data_in=00011010	 data_out=00000000	
# time=                1125 we_in=1	 clk=1	 read_addr=000000	 write_addr=011010	 data_in=00011010	 data_out=00000000	
# time=                1130 we_in=1	 clk=0	 read_addr=000000	 write_addr=011010	 data_in=00011010	 data_out=00000000	
# time=                1135 we_in=1	 clk=1	 read_addr=000000	 write_addr=011010	 data_in=00011010	 data_out=00000000	
# time=                1140 we_in=1	 clk=0	 read_addr=000000	 write_addr=011011	 data_in=00011011	 data_out=00000000	
# time=                1145 we_in=1	 clk=1	 read_addr=000000	 write_addr=011011	 data_in=00011011	 data_out=00000000	
# time=                1150 we_in=1	 clk=0	 read_addr=000000	 write_addr=011011	 data_in=00011011	 data_out=00000000	
# time=                1155 we_in=1	 clk=1	 read_addr=000000	 write_addr=011011	 data_in=00011011	 data_out=00000000	
# time=                1160 we_in=1	 clk=0	 read_addr=000000	 write_addr=011011	 data_in=00011011	 data_out=00000000	
# time=                1165 we_in=1	 clk=1	 read_addr=000000	 write_addr=011011	 data_in=00011011	 data_out=00000000	
# time=                1170 we_in=1	 clk=0	 read_addr=000000	 write_addr=011011	 data_in=00011011	 data_out=00000000	
# time=                1175 we_in=1	 clk=1	 read_addr=000000	 write_addr=011011	 data_in=00011011	 data_out=00000000	
# time=                1180 we_in=1	 clk=0	 read_addr=000000	 write_addr=011100	 data_in=00011100	 data_out=00000000	
# time=                1185 we_in=1	 clk=1	 read_addr=000000	 write_addr=011100	 data_in=00011100	 data_out=00000000	
# time=                1190 we_in=1	 clk=0	 read_addr=000000	 write_addr=011100	 data_in=00011100	 data_out=00000000	
# time=                1195 we_in=1	 clk=1	 read_addr=000000	 write_addr=011100	 data_in=00011100	 data_out=00000000	
# time=                1200 we_in=1	 clk=0	 read_addr=000000	 write_addr=011100	 data_in=00011100	 data_out=00000000	
# time=                1205 we_in=1	 clk=1	 read_addr=000000	 write_addr=011100	 data_in=00011100	 data_out=00000000	
# time=                1210 we_in=1	 clk=0	 read_addr=000000	 write_addr=011100	 data_in=00011100	 data_out=00000000	
# time=                1215 we_in=1	 clk=1	 read_addr=000000	 write_addr=011100	 data_in=00011100	 data_out=00000000	
# time=                1220 we_in=1	 clk=0	 read_addr=000000	 write_addr=011101	 data_in=00011101	 data_out=00000000	
# time=                1225 we_in=1	 clk=1	 read_addr=000000	 write_addr=011101	 data_in=00011101	 data_out=00000000	
# time=                1230 we_in=1	 clk=0	 read_addr=000000	 write_addr=011101	 data_in=00011101	 data_out=00000000	
# time=                1235 we_in=1	 clk=1	 read_addr=000000	 write_addr=011101	 data_in=00011101	 data_out=00000000	
# time=                1240 we_in=1	 clk=0	 read_addr=000000	 write_addr=011101	 data_in=00011101	 data_out=00000000	
# time=                1245 we_in=1	 clk=1	 read_addr=000000	 write_addr=011101	 data_in=00011101	 data_out=00000000	
# time=                1250 we_in=1	 clk=0	 read_addr=000000	 write_addr=011101	 data_in=00011101	 data_out=00000000	
# time=                1255 we_in=1	 clk=1	 read_addr=000000	 write_addr=011101	 data_in=00011101	 data_out=00000000	
# time=                1260 we_in=1	 clk=0	 read_addr=000000	 write_addr=011110	 data_in=00011110	 data_out=00000000	
# time=                1265 we_in=1	 clk=1	 read_addr=000000	 write_addr=011110	 data_in=00011110	 data_out=00000000	
# time=                1270 we_in=1	 clk=0	 read_addr=000000	 write_addr=011110	 data_in=00011110	 data_out=00000000	
# time=                1275 we_in=1	 clk=1	 read_addr=000000	 write_addr=011110	 data_in=00011110	 data_out=00000000	
# time=                1280 we_in=1	 clk=0	 read_addr=000000	 write_addr=011110	 data_in=00011110	 data_out=00000000	
# time=                1285 we_in=1	 clk=1	 read_addr=000000	 write_addr=011110	 data_in=00011110	 data_out=00000000	
